{
  "textures": {
    "iron": "blocks/iron_block",
    "piston": "advancedrefineries:blocks/block_conveyor_push"
  },
  "elements": [
    {
      "from": [2, 9, 0],
      "to":   [4, 16, 1],
      "faces": {
        "down":  { "texture": "#iron" },
        "up":    { "texture": "#iron" },
        "north": { "texture": "#iron" },
        "south": { "texture": "#iron" },
        "west":  { "texture": "#iron" },
        "east":  { "texture": "#iron" }
      }
    },
    {
      "from": [12, 9, 0],
      "to":   [14, 16, 1],
      "faces": {
        "down":  { "texture": "#iron" },
        "up":    { "texture": "#iron" },
        "north": { "texture": "#iron" },
        "south": { "texture": "#iron" },
        "west":  { "texture": "#iron" },
        "east":  { "texture": "#iron" }
      }
    },
    {
      "from": [2, 9, 15],
      "to":   [4, 16, 16],
      "faces": {
        "down":  { "texture": "#iron" },
        "up":    { "texture": "#iron" },
        "north": { "texture": "#iron" },
        "south": { "texture": "#iron" },
        "west":  { "texture": "#iron" },
        "east":  { "texture": "#iron" }
      }
    },
    {
      "from": [12, 9, 15],
      "to":   [14, 16, 16],
      "faces": {
        "down":  { "texture": "#iron" },
        "up":    { "texture": "#iron" },
        "north": { "texture": "#iron" },
        "south": { "texture": "#iron" },
        "west":  { "texture": "#iron" },
        "east":  { "texture": "#iron" }
      }
    }
  ]
}