{
  "display": {
    "gui": {
      "rotation": [ 30, 135, 0 ],
      "translation": [ 0, 0, 0],
      "scale":[ 0.625, 0.625, 0.625 ]
    },
    "fixed": {
      "rotation": [ 0, 90, 0 ],
      "translation": [ 0, 0, 0],
      "scale":[ 1, 0.5, 0.5 ]
    }
  },
  "ambientocclusion": false,
  "textures": {
    "conveyor": "advancedrefineries:blocks/block_conveyor_base",
    "iron": "blocks/iron_block",
    "particles": "blocks/iron_block"
  },
  "elements": [
    {
      "from": [0, 6, 1],
      "to":   [1, 10, 15],
      "faces": {
        "down":  { "texture": "#conveyor", "rotation": 270, "uv": [1, 4, 15, 5] },
        "up":    { "texture": "#conveyor", "rotation": 90, "uv": [1, 15, 15, 16] },
        "north": { "texture": "#conveyor", "uv": [0, 0, 1, 4] },
        "south": { "texture": "#conveyor", "uv": [15, 0, 16, 4] },
        "west":  { "texture": "#conveyor", "uv": [1, 0, 15, 4] },
        "east":  { "texture": "#conveyor" }
      }
    },
    {
      "from": [15, 6, 1],
      "to":   [16, 10, 15],
      "faces": {
        "down":  { "texture": "#conveyor", "rotation": 90, "uv": [1, 11, 15, 12] },
        "up":    { "texture": "#conveyor", "rotation": 90, "uv": [1, 0, 15, 1] },
        "north": { "texture": "#conveyor", "rotation": 180, "uv": [0, 12, 1, 16] },
        "south": { "texture": "#conveyor", "rotation": 180, "uv": [15, 12, 16, 16] },
        "west":  { "texture": "#conveyor", "rotation": 180 },
        "east":  { "texture": "#conveyor", "rotation": 180, "uv": [1, 12, 15, 16] }
      }
    },
    {
      "from": [1, 10, 1],
      "to":   [15, 11, 15],
      "faces": {
        "down":  { "texture": "#conveyor", "rotation": 90 },
        "up":    { "texture": "#conveyor", "rotation": 90, "uv": [1, 1, 15, 15] },
        "north": { "texture": "#conveyor", "rotation": 270, "uv": [0, 1, 1, 15] },
        "south": { "texture": "#conveyor", "rotation": 90, "uv": [15, 1, 16, 15] },
        "west":  { "texture": "#conveyor", "uv": [1, 15, 15, 16] },
        "east":  { "texture": "#conveyor", "uv": [1, 0, 15, 1] }
      }
    },
    {
      "from": [1, 5, 1],
      "to":   [15, 6, 15],
      "faces": {
        "down":  { "texture": "#conveyor", "rotation": 270, "uv": [1, 5, 15, 16] },
        "up":    { "texture": "#conveyor", "rotation": 270 },
        "north": { "texture": "#conveyor", "rotation": 90, "uv": [0, 5, 1, 16] },
        "south": { "texture": "#conveyor", "rotation": 270, "uv": [15, 5, 16, 16] },
        "west":  { "texture": "#conveyor", "uv": [1, 4, 15, 5] },
        "east":  { "texture": "#conveyor", "rotation": 180, "uv": [1, 11, 15, 12] }
      }
    },
    {
      "from": [2, 0, 0],
      "to":   [4, 9, 1],
      "faces": {
        "down":  { "texture": "#iron" },
        "up":    { "texture": "#iron" },
        "north": { "texture": "#iron" },
        "south": { "texture": "#iron" },
        "west":  { "texture": "#iron" },
        "east":  { "texture": "#iron" }
      }
    },
    {
      "from": [12, 0, 0],
      "to":   [14, 9, 1],
      "faces": {
        "down":  { "texture": "#iron" },
        "up":    { "texture": "#iron" },
        "north": { "texture": "#iron" },
        "south": { "texture": "#iron" },
        "west":  { "texture": "#iron" },
        "east":  { "texture": "#iron" }
      }
    },
    {
      "from": [2, 0, 15],
      "to":   [4, 9, 16],
      "faces": {
        "down":  { "texture": "#iron" },
        "up":    { "texture": "#iron" },
        "north": { "texture": "#iron" },
        "south": { "texture": "#iron" },
        "west":  { "texture": "#iron" },
        "east":  { "texture": "#iron" }
      }
    },
    {
      "from": [12, 0, 15],
      "to":   [14, 9, 16],
      "faces": {
        "down":  { "texture": "#iron" },
        "up":    { "texture": "#iron" },
        "north": { "texture": "#iron" },
        "south": { "texture": "#iron" },
        "west":  { "texture": "#iron" },
        "east":  { "texture": "#iron" }
      }
    },
    {
      "from": [1, 6, 2],
      "to":   [15, 10, 14],
      "faces": {
        "down":  { "texture": "#iron" },
        "up":    { "texture": "#iron" },
        "north": { "texture": "#iron" },
        "south": { "texture": "#iron" },
        "west":  { "texture": "#iron" },
        "east":  { "texture": "#iron" }
      }
    },
    {
      "from": [2, 7, 1],
      "to":   [4, 9, 15],
      "faces": {
        "down":  { "texture": "#iron" },
        "up":    { "texture": "#iron" },
        "north": { "texture": "#iron" },
        "south": { "texture": "#iron" },
        "west":  { "texture": "#iron" },
        "east":  { "texture": "#iron" }
      }
    },
    {
      "from": [12, 7, 1],
      "to":   [14, 9, 15],
      "faces": {
        "down":  { "texture": "#iron" },
        "up":    { "texture": "#iron" },
        "north": { "texture": "#iron" },
        "south": { "texture": "#iron" },
        "west":  { "texture": "#iron" },
        "east":  { "texture": "#iron" }
      }
    }
  ]
}