{
  "multipart": [
    {
      "apply": { "model": "advancedrefineries:power_line_center" }
    },
    {
      "when": { "down": "true" },
      "apply": { "model": "advancedrefineries:power_line_out" }
    },
    {
      "when": { "up": "true" },
      "apply": { "model": "advancedrefineries:power_line_out", "x": 180 }
    },
    {
      "when": { "north": "true" },
      "apply": { "model": "advancedrefineries:power_line_out", "x": 270 }
    },
    {
      "when": { "south": "true" },
      "apply": { "model": "advancedrefineries:power_line_out", "x": 90 }
    },
    {
      "when": { "west": "true" },
      "apply": { "model": "advancedrefineries:power_line_out", "x": 90, "y": 90 }
    },
    {
      "when": { "east": "true" },
      "apply": { "model": "advancedrefineries:power_line_out", "x": 90, "y": 270 }
    }
  ]
}